Alan
Turing
1912
1954
Male
Charles
Babbage
1822
1871
Male
Ada
Lovelace
1815
1852
Female
Konrad
Zuse
1910
1995
Male
Blaise
Pascal
1623
1662
Male
Jan
Hansen
1995
2012
Male
Grace
Hopper
1906
1992
Male
John
Mauchly
1907
1980
Male





